{
    "name": "Produccion",
    "alias": "produccion",
    "description": "",
    "version": "v0.1",
    "keywords": [],
    "active": 1,
    "order": 1,
    "providers": [
        "Modules\\Produccion\\Providers\\ProduccionServiceProvider",
        "Modules\\Produccion\\Providers\\RouteServiceProvider"
    ],
    "aliases":{},
    "files": [
        
    ]
}
